([('audio',
   '/Users/alan/Documents/programming_journey/python3-lab/imgtopdf/build/audio/audio',
   'EXECUTABLE'),
  ('_struct.cpython-37m-darwin.so',
   '/usr/local/Cellar/python/3.7.4_1/Frameworks/Python.framework/Versions/3.7/lib/python3.7/lib-dynload/_struct.cpython-37m-darwin.so',
   'EXTENSION'),
  ('zlib.cpython-37m-darwin.so',
   '/usr/local/Cellar/python/3.7.4_1/Frameworks/Python.framework/Versions/3.7/lib/python3.7/lib-dynload/zlib.cpython-37m-darwin.so',
   'EXTENSION'),
  ('Python',
   '/usr/local/Cellar/python/3.7.4_1/Frameworks/Python.framework/Versions/3.7/Python',
   'BINARY'),
  ('resource',
   '/usr/local/Cellar/python/3.7.4_1/Frameworks/Python.framework/Versions/3.7/lib/python3.7/lib-dynload/resource.cpython-37m-darwin.so',
   'EXTENSION'),
  ('_posixsubprocess',
   '/usr/local/Cellar/python/3.7.4_1/Frameworks/Python.framework/Versions/3.7/lib/python3.7/lib-dynload/_posixsubprocess.cpython-37m-darwin.so',
   'EXTENSION'),
  ('_pickle',
   '/usr/local/Cellar/python/3.7.4_1/Frameworks/Python.framework/Versions/3.7/lib/python3.7/lib-dynload/_pickle.cpython-37m-darwin.so',
   'EXTENSION'),
  ('_datetime',
   '/usr/local/Cellar/python/3.7.4_1/Frameworks/Python.framework/Versions/3.7/lib/python3.7/lib-dynload/_datetime.cpython-37m-darwin.so',
   'EXTENSION'),
  ('_ssl',
   '/usr/local/Cellar/python/3.7.4_1/Frameworks/Python.framework/Versions/3.7/lib/python3.7/lib-dynload/_ssl.cpython-37m-darwin.so',
   'EXTENSION'),
  ('_heapq',
   '/usr/local/Cellar/python/3.7.4_1/Frameworks/Python.framework/Versions/3.7/lib/python3.7/lib-dynload/_heapq.cpython-37m-darwin.so',
   'EXTENSION'),
  ('_codecs_tw',
   '/usr/local/Cellar/python/3.7.4_1/Frameworks/Python.framework/Versions/3.7/lib/python3.7/lib-dynload/_codecs_tw.cpython-37m-darwin.so',
   'EXTENSION'),
  ('_codecs_hk',
   '/usr/local/Cellar/python/3.7.4_1/Frameworks/Python.framework/Versions/3.7/lib/python3.7/lib-dynload/_codecs_hk.cpython-37m-darwin.so',
   'EXTENSION'),
  ('_codecs_jp',
   '/usr/local/Cellar/python/3.7.4_1/Frameworks/Python.framework/Versions/3.7/lib/python3.7/lib-dynload/_codecs_jp.cpython-37m-darwin.so',
   'EXTENSION'),
  ('_codecs_kr',
   '/usr/local/Cellar/python/3.7.4_1/Frameworks/Python.framework/Versions/3.7/lib/python3.7/lib-dynload/_codecs_kr.cpython-37m-darwin.so',
   'EXTENSION'),
  ('_codecs_cn',
   '/usr/local/Cellar/python/3.7.4_1/Frameworks/Python.framework/Versions/3.7/lib/python3.7/lib-dynload/_codecs_cn.cpython-37m-darwin.so',
   'EXTENSION'),
  ('_codecs_iso2022',
   '/usr/local/Cellar/python/3.7.4_1/Frameworks/Python.framework/Versions/3.7/lib/python3.7/lib-dynload/_codecs_iso2022.cpython-37m-darwin.so',
   'EXTENSION'),
  ('_multibytecodec',
   '/usr/local/Cellar/python/3.7.4_1/Frameworks/Python.framework/Versions/3.7/lib/python3.7/lib-dynload/_multibytecodec.cpython-37m-darwin.so',
   'EXTENSION'),
  ('_struct',
   '/usr/local/Cellar/python/3.7.4_1/Frameworks/Python.framework/Versions/3.7/lib/python3.7/lib-dynload/_struct.cpython-37m-darwin.so',
   'EXTENSION'),
  ('_opcode',
   '/usr/local/Cellar/python/3.7.4_1/Frameworks/Python.framework/Versions/3.7/lib/python3.7/lib-dynload/_opcode.cpython-37m-darwin.so',
   'EXTENSION'),
  ('readline',
   '/usr/local/Cellar/python/3.7.4_1/Frameworks/Python.framework/Versions/3.7/lib/python3.7/lib-dynload/readline.cpython-37m-darwin.so',
   'EXTENSION'),
  ('pyexpat',
   '/usr/local/Cellar/python/3.7.4_1/Frameworks/Python.framework/Versions/3.7/lib/python3.7/lib-dynload/pyexpat.cpython-37m-darwin.so',
   'EXTENSION'),
  ('_scproxy',
   '/usr/local/Cellar/python/3.7.4_1/Frameworks/Python.framework/Versions/3.7/lib/python3.7/lib-dynload/_scproxy.cpython-37m-darwin.so',
   'EXTENSION'),
  ('unicodedata',
   '/usr/local/Cellar/python/3.7.4_1/Frameworks/Python.framework/Versions/3.7/lib/python3.7/lib-dynload/unicodedata.cpython-37m-darwin.so',
   'EXTENSION'),
  ('termios',
   '/usr/local/Cellar/python/3.7.4_1/Frameworks/Python.framework/Versions/3.7/lib/python3.7/lib-dynload/termios.cpython-37m-darwin.so',
   'EXTENSION'),
  ('_sha1',
   '/usr/local/Cellar/python/3.7.4_1/Frameworks/Python.framework/Versions/3.7/lib/python3.7/lib-dynload/_sha1.cpython-37m-darwin.so',
   'EXTENSION'),
  ('_md5',
   '/usr/local/Cellar/python/3.7.4_1/Frameworks/Python.framework/Versions/3.7/lib/python3.7/lib-dynload/_md5.cpython-37m-darwin.so',
   'EXTENSION'),
  ('_sha256',
   '/usr/local/Cellar/python/3.7.4_1/Frameworks/Python.framework/Versions/3.7/lib/python3.7/lib-dynload/_sha256.cpython-37m-darwin.so',
   'EXTENSION'),
  ('_sha512',
   '/usr/local/Cellar/python/3.7.4_1/Frameworks/Python.framework/Versions/3.7/lib/python3.7/lib-dynload/_sha512.cpython-37m-darwin.so',
   'EXTENSION'),
  ('_blake2',
   '/usr/local/Cellar/python/3.7.4_1/Frameworks/Python.framework/Versions/3.7/lib/python3.7/lib-dynload/_blake2.cpython-37m-darwin.so',
   'EXTENSION'),
  ('_sha3',
   '/usr/local/Cellar/python/3.7.4_1/Frameworks/Python.framework/Versions/3.7/lib/python3.7/lib-dynload/_sha3.cpython-37m-darwin.so',
   'EXTENSION'),
  ('_hashlib',
   '/usr/local/Cellar/python/3.7.4_1/Frameworks/Python.framework/Versions/3.7/lib/python3.7/lib-dynload/_hashlib.cpython-37m-darwin.so',
   'EXTENSION'),
  ('_bisect',
   '/usr/local/Cellar/python/3.7.4_1/Frameworks/Python.framework/Versions/3.7/lib/python3.7/lib-dynload/_bisect.cpython-37m-darwin.so',
   'EXTENSION'),
  ('_random',
   '/usr/local/Cellar/python/3.7.4_1/Frameworks/Python.framework/Versions/3.7/lib/python3.7/lib-dynload/_random.cpython-37m-darwin.so',
   'EXTENSION'),
  ('zlib',
   '/usr/local/Cellar/python/3.7.4_1/Frameworks/Python.framework/Versions/3.7/lib/python3.7/lib-dynload/zlib.cpython-37m-darwin.so',
   'EXTENSION'),
  ('_bz2',
   '/usr/local/Cellar/python/3.7.4_1/Frameworks/Python.framework/Versions/3.7/lib/python3.7/lib-dynload/_bz2.cpython-37m-darwin.so',
   'EXTENSION'),
  ('_lzma',
   '/usr/local/Cellar/python/3.7.4_1/Frameworks/Python.framework/Versions/3.7/lib/python3.7/lib-dynload/_lzma.cpython-37m-darwin.so',
   'EXTENSION'),
  ('grp',
   '/usr/local/Cellar/python/3.7.4_1/Frameworks/Python.framework/Versions/3.7/lib/python3.7/lib-dynload/grp.cpython-37m-darwin.so',
   'EXTENSION'),
  ('binascii',
   '/usr/local/Cellar/python/3.7.4_1/Frameworks/Python.framework/Versions/3.7/lib/python3.7/lib-dynload/binascii.cpython-37m-darwin.so',
   'EXTENSION'),
  ('_socket',
   '/usr/local/Cellar/python/3.7.4_1/Frameworks/Python.framework/Versions/3.7/lib/python3.7/lib-dynload/_socket.cpython-37m-darwin.so',
   'EXTENSION'),
  ('select',
   '/usr/local/Cellar/python/3.7.4_1/Frameworks/Python.framework/Versions/3.7/lib/python3.7/lib-dynload/select.cpython-37m-darwin.so',
   'EXTENSION'),
  ('math',
   '/usr/local/Cellar/python/3.7.4_1/Frameworks/Python.framework/Versions/3.7/lib/python3.7/lib-dynload/math.cpython-37m-darwin.so',
   'EXTENSION'),
  ('fcntl',
   '/usr/local/Cellar/python/3.7.4_1/Frameworks/Python.framework/Versions/3.7/lib/python3.7/lib-dynload/fcntl.cpython-37m-darwin.so',
   'EXTENSION'),
  ('_ctypes',
   '/usr/local/Cellar/python/3.7.4_1/Frameworks/Python.framework/Versions/3.7/lib/python3.7/lib-dynload/_ctypes.cpython-37m-darwin.so',
   'EXTENSION'),
  ('_json',
   '/usr/local/Cellar/python/3.7.4_1/Frameworks/Python.framework/Versions/3.7/lib/python3.7/lib-dynload/_json.cpython-37m-darwin.so',
   'EXTENSION'),
  ('_elementtree',
   '/usr/local/Cellar/python/3.7.4_1/Frameworks/Python.framework/Versions/3.7/lib/python3.7/lib-dynload/_elementtree.cpython-37m-darwin.so',
   'EXTENSION'),
  ('_uuid',
   '/usr/local/Cellar/python/3.7.4_1/Frameworks/Python.framework/Versions/3.7/lib/python3.7/lib-dynload/_uuid.cpython-37m-darwin.so',
   'EXTENSION'),
  ('libcrypto.1.1.dylib',
   '/usr/local/opt/openssl@1.1/lib/libcrypto.1.1.dylib',
   'BINARY'),
  ('libssl.1.1.dylib',
   '/usr/local/opt/openssl@1.1/lib/libssl.1.1.dylib',
   'BINARY'),
  ('libreadline.8.dylib',
   '/usr/local/opt/readline/lib/libreadline.8.dylib',
   'BINARY'),
  ('liblzma.5.dylib', '/usr/local/opt/xz/lib/liblzma.5.dylib', 'BINARY'),
  ('base_library.zip',
   '/Users/alan/Documents/programming_journey/python3-lab/imgtopdf/build/audio/base_library.zip',
   'DATA')],)
