('/Users/alan/Documents/programming_journey/python3-lab/imgtopdf/build/audio/audio',
 True,
 False,
 True,
 None,
 None,
 False,
 False,
 None,
 True,
 'audio.pkg',
 [('PYZ-00.pyz',
   '/Users/alan/Documents/programming_journey/python3-lab/imgtopdf/build/audio/PYZ-00.pyz',
   'PYZ'),
  ('_struct',
   '/usr/local/Cellar/python/3.7.4_1/Frameworks/Python.framework/Versions/3.7/lib/python3.7/lib-dynload/_struct.cpython-37m-darwin.so',
   'EXTENSION'),
  ('zlib',
   '/usr/local/Cellar/python/3.7.4_1/Frameworks/Python.framework/Versions/3.7/lib/python3.7/lib-dynload/zlib.cpython-37m-darwin.so',
   'EXTENSION'),
  ('struct',
   '/usr/local/Cellar/python/3.7.4_1/Frameworks/Python.framework/Versions/3.7/lib/python3.7/struct.pyo',
   'PYMODULE'),
  ('pyimod01_os_path',
   '/usr/local/lib/python3.7/site-packages/PyInstaller/loader/pyimod01_os_path.pyc',
   'PYMODULE'),
  ('pyimod02_archive',
   '/usr/local/lib/python3.7/site-packages/PyInstaller/loader/pyimod02_archive.pyc',
   'PYMODULE'),
  ('pyimod03_importers',
   '/usr/local/lib/python3.7/site-packages/PyInstaller/loader/pyimod03_importers.pyc',
   'PYMODULE'),
  ('pyiboot01_bootstrap',
   '/usr/local/lib/python3.7/site-packages/PyInstaller/loader/pyiboot01_bootstrap.py',
   'PYSOURCE'),
  ('audio',
   '/Users/alan/Documents/programming_journey/python3-lab/imgtopdf/audio.py',
   'PYSOURCE')],
 [],
 False,
 False,
 1569550189,
 [('run',
   '/usr/local/lib/python3.7/site-packages/PyInstaller/bootloader/Darwin-64bit/run',
   'EXECUTABLE')])
